{
  "Version": "2012-10-17",
  "Statement": [
    {
      "Sid": "VisualEditor0",
      "Effect": "Allow",
      "Action": [
        "ecr:DescribeImageScanFindings",
        "ecr:GetLifecyclePolicyPreview",
        "ecr:GetDownloadUrlForLayer",
        "ecr:ListTagsForResource",
        "ecr:UploadLayerPart",
        "ecr:ListImages",
        "ecr:PutImage",
        "ecs:UpdateService",
        "iam:PassRole",
        "ecr:BatchGetImage",
        "ecr:CompleteLayerUpload",
        "ecr:DescribeImages",
        "ecr:TagResource",
        "ecr:DescribeRepositories",
        "ecr:InitiateLayerUpload",
        "ecr:BatchCheckLayerAvailability",
        "ecr:GetRepositoryPolicy",
        "ecr:GetLifecyclePolicy"
      ],
      "Resource": [
        "arn:aws:ecs:<LOC>:<ACCT>:service/<CLUSTER>/<SERVICE>",
        "arn:aws:ecr:*:<ACCT>:repository/<NAME>",
        "arn:aws:iam::<ACCT>:role/ecsTaskExecutionRole"
      ]
    },
    {
      "Sid": "VisualEditor1",
      "Effect": "Allow",
      "Action": [
        "ecs:RegisterTaskDefinition",
        "ecr:GetAuthorizationToken"
      ],
      "Resource": "*"
    }
  ]
}
